GSM733771_1	GSM733771_1	GSM733742
GSM733771_2	GSM733771_2	GSM733742
GSM733708_1	GSM733708_1	GSM733742
GSM733708_2	GSM733708_2	GSM733742
GSM733708_3	GSM733708_3	GSM733742
GSM466732	GSM466732	GSM605333,GSM605334
GSM663427	GSM663427	GSM605333,GSM605334
GSM469971	GSM469971	GSM605333,GSM605334
GSM605315	GSM605315	GSM605333,GSM605334
GSM945853_1	GSM945853_1	GSM945855
GSM945853_2	GSM945853_2	GSM945855
GSM945304_1	GSM945304_1	GSM945287
GSM945304_2	GSM945304_2	GSM945287
GSM733684_1	GSM733684_1	GSM733659
GSM733684_2	GSM733684_2	GSM733659
GSM733682_1	GSM733682_1	GSM733659
GSM733682_2	GSM733682_2	GSM733659
GSM733660_1	GSM733660_1	GSM733668
GSM733660_2	GSM733660_2	GSM733668
GSM733712_1	GSM733712_1	GSM733668
GSM733712_2	GSM733712_2	GSM733668
GSM733691_1	GSM733691_1	GSM733715
GSM733691_2	GSM733691_2	GSM733715
GSM733691_3	GSM733691_3	GSM733715
GSM733673_1	GSM733673_1	GSM733715
GSM733673_2	GSM733673_2	GSM733715
GSM733673_3	GSM733673_3	GSM733715
GSM469966	GSM469966	GSM521926,GSM521927
GSM469967	GSM469967	GSM521926,GSM521927
GSM521901_1	GSM521901_1	GSM521929
GSM521901_2	GSM521901_2	GSM521929
GSM733656_1	GSM733656_1	GSM733780
GSM733656_2	GSM733656_2	GSM733780
GSM733680_1	GSM733680_1	GSM733780
GSM733680_2	GSM733680_2	GSM733780
GSM733674_1	GSM733674_1	GSM733740
GSM733674_2	GSM733674_2	GSM733740
GSM733674_3	GSM733674_3	GSM733740
GSM733720_1	GSM733720_1	GSM733740
GSM733720_2	GSM733720_2	GSM733740
GSM733720_3	GSM733720_3	GSM733740
GSM945251_1	GSM945251_1	GSM945250
GSM945251_2	GSM945251_2	GSM945250
GSM1869136_1	GSM1869136_1	GSM1869139
GSM1869136_2	GSM1869136_2	GSM1869139
GSM945269_1	GSM945269_1	GSM945274
GSM945269_2	GSM945269_2	GSM945274
GSM945854_1	GSM945854_1	GSM945859
GSM945854_2	GSM945854_2	GSM945859
